{
  "results": [
    {
      "popularity": 74.152,
      "vote_count": 1953,
      "video": false,
      "poster_path": "/f4aul3FyD3jv3v4bul1IrkWZvzq.jpg",
      "id": 508439,
      "adult": false,
      "backdrop_path": "/xFxk4vnirOtUxpOEWgA1MCRfy6J.jpg",
      "original_language": "en",
      "original_title": "Onward",
      "genre_ids": [
        12,
        16,
        35,
        14,
        10751
      ],
      "title": "Onward",
      "vote_average": 7.9,
      "overview": "In a suburban fantasy world, two teenage elf brothers embark on an extraordinary quest to discover if there is still a little magic left out there.",
      "release_date": "2020-02-29"
    },
    {
      "popularity": 33.313,
      "vote_count": 707,
      "video": false,
      "poster_path": "/wxPhn4ef1EAo5njxwBkAEVrlJJG.jpg",
      "id": 514847,
      "adult": false,
      "backdrop_path": "/qfQ78ZKiouoM2yhAnfNblp9ijQE.jpg",
      "original_language": "en",
      "original_title": "The Hunt",
      "genre_ids": [
        28,
        27,
        53
      ],
      "title": "The Hunt",
      "vote_average": 6.7,
      "overview": "Twelve strangers wake up in a clearing. They don't know where they are—or how they got there. In the shadow of a dark internet conspiracy theory, ruthless elitists gather at a remote location to hunt humans for sport. But their master plan is about to be derailed when one of the hunted turns the tables on her pursuers.",
      "release_date": "2020-03-11"
    },
    {
      "popularity": 23.909,
      "vote_count": 0,
      "video": false,
      "poster_path": "/v9wenXvoCF1LC5efdsJQOrBQQqU.jpg",
      "id": 524047,
      "adult": false,
      "backdrop_path": "/9EPYe2dKXAE6vKgGpi7GvqOushn.jpg",
      "original_language": "en",
      "original_title": "Greenland",
      "genre_ids": [
        28,
        878,
        53
      ],
      "title": "Greenland",
      "vote_average": 0,
      "overview": "A detached married couple must get their son and themselves to safety after being randomly selected to enter an underground bunker, as a massive object from space threatens to destroy the world in less than 48 hours.",
      "release_date": "2020-06-12"
    },
    {
      "popularity": 24.56,
      "vote_count": 0,
      "video": false,
      "poster_path": "/yHsu8swJSgqDrsPiu7adBjOPLlp.jpg",
      "id": 606679,
      "adult": false,
      "backdrop_path": "/2jHGYnzX7OxTLMS5MFOht6tf0Wn.jpg",
      "original_language": "en",
      "original_title": "The High Note",
      "genre_ids": [
        35,
        18,
        10402,
        10749
      ],
      "title": "The High Note",
      "vote_average": 0,
      "overview": "Set in the dazzling world of the LA music scene comes the story of Grace Davis, a superstar whose talent, and ego, have reached unbelievable heights. Maggie is Grace’s overworked personal assistant who’s stuck running errands, but still aspires to her childhood dream of becoming a music producer. When Grace’s manager presents her with a choice that could alter the course of her career, Maggie and Grace come up with a plan that could change their lives forever.",
      "release_date": "2020-06-10"
    },
    {
      "popularity": 25.774,
      "vote_count": 2,
      "video": false,
      "poster_path": "/cjzU4g6SlScnP4MdkleyI25KGlR.jpg",
      "id": 582014,
      "adult": false,
      "backdrop_path": "/3yassf4rHaNVVaIoGf1FGU948MY.jpg",
      "original_language": "en",
      "original_title": "Promising Young Woman",
      "genre_ids": [
        80,
        18,
        53
      ],
      "title": "Promising Young Woman",
      "vote_average": 4.8,
      "overview": "A young woman haunted by a tragedy in her past takes revenge on the predatory men unlucky enough to cross her path.",
      "release_date": "2020-05-28"
    },
    {
      "popularity": 15.541,
      "vote_count": 19,
      "video": false,
      "poster_path": "/o1SoYYvxG4bWTXp4wNWt5sKQf1E.jpg",
      "id": 567965,
      "adult": false,
      "backdrop_path": "/qeG7rRQz6RvUqhTZh2AOkkVl8Aj.jpg",
      "original_language": "en",
      "original_title": "Misbehaviour",
      "genre_ids": [
        18,
        36
      ],
      "title": "Misbehaviour",
      "vote_average": 6.3,
      "overview": "A group of women hatch a plan to disrupt the 1970 Miss World beauty competition in London.",
      "release_date": "2020-03-12"
    },
    {
      "popularity": 22.873,
      "vote_count": 1,
      "video": false,
      "poster_path": "/pMKmglzaTLlltXe7vyX4Rtsn5YH.jpg",
      "id": 647785,
      "adult": false,
      "backdrop_path": "/vXUX7Qi4rtOh2TxqA1eB2CU6QAo.jpg",
      "original_language": "en",
      "original_title": "Debt Collectors",
      "genre_ids": [
        28
      ],
      "title": "Debt Collectors",
      "vote_average": 2,
      "overview": "sequel  to The Debt Collector",
      "release_date": "2020-05-29"
    },
    {
      "popularity": 15.353,
      "vote_count": 121,
      "video": false,
      "poster_path": "/6VZlm8sEwxkE3L5nXxz17QLj1sF.jpg",
      "id": 471707,
      "adult": false,
      "backdrop_path": "/corL9qIoOJSUjM7zBDTKyS71mdZ.jpg",
      "original_language": "pl",
      "original_title": "Boże Ciało",
      "genre_ids": [
        18
      ],
      "title": "Corpus Christi",
      "vote_average": 7.7,
      "overview": "A pious 20-year-old juvenile delinquent is sent to work at a sawmill in a small town; on arrival, he dresses up as a priest and accidentally takes over the local parish. The arrival of this young, charismatic preacher is an opportunity for the local community to begin the healing process after a tragedy that happened a year prior.",
      "release_date": "2019-10-11"
    },
    {
      "popularity": 13.267,
      "vote_count": 13,
      "video": false,
      "poster_path": "/5ud97JNxaWXQGqaOv7eddvCNra0.jpg",
      "id": 310583,
      "adult": false,
      "backdrop_path": null,
      "original_language": "en",
      "original_title": "Daddy's Girl",
      "genre_ids": [
        18,
        53
      ],
      "title": "Daddy's Girl",
      "vote_average": 0,
      "overview": "A twisted suspense thriller about a manipulative teenage girl who convinces her widower/alcoholic/over protective father that the boy she asked out on a date beat and raped her, when in fact he turned down her advances. But no amount of facts can persuade this enraged father. No one hurts Daddy's Girl.",
      "release_date": "2020-06-15"
    },
    {
      "popularity": 14.916,
      "vote_count": 0,
      "video": false,
      "poster_path": "/shx7pGYQ9s4t7WFe19eES2WOrMS.jpg",
      "id": 610201,
      "adult": false,
      "backdrop_path": "/lvtEcdBmmrxzAQvRIYyDRQDeDJM.jpg",
      "original_language": "en",
      "original_title": "The Pale Door",
      "genre_ids": [
        27,
        37
      ],
      "title": "The Pale Door",
      "vote_average": 0,
      "overview": "After a stagecoach robbery goes bad, two brothers leading a gang of cowboys must survive the night in a ghost town inhabited by a coven of witches.",
      "release_date": "2020-06-18"
    },
    {
      "popularity": 12.08,
      "vote_count": 65,
      "video": false,
      "poster_path": "/cdqZqIcWt0Ne2Io2OA9iWqqMuCA.jpg",
      "id": 589049,
      "adult": false,
      "backdrop_path": "/kU5qE5b6ksL3osaqKCUlMS08Ays.jpg",
      "original_language": "en",
      "original_title": "The Photograph",
      "genre_ids": [
        18,
        10749
      ],
      "title": "The Photograph",
      "vote_average": 7,
      "overview": "When famed photographer Christina Eames dies unexpectedly, she leaves her estranged daughter, Mae, hurt, angry and full of questions. When Mae finds a photograph tucked away in a safe-deposit box, she soon finds herself delving into her mother's early life -- an investigation that leads to an unexpected romance with a rising journalist.",
      "release_date": "2020-02-14"
    },
    {
      "popularity": 13,
      "vote_count": 113,
      "video": false,
      "poster_path": "/8A6qALzfMxgj51ly8KyTCZfXutG.jpg",
      "id": 477018,
      "adult": false,
      "backdrop_path": "/uaC1Swfs1fo7Y9fV1iRHzLdhFHo.jpg",
      "original_language": "fr",
      "original_title": "Les Traducteurs",
      "genre_ids": [
        53
      ],
      "title": "The Translators",
      "vote_average": 6.9,
      "overview": "Nine translators have been picked by a ruthless publisher and locked in a luxury bunker to translate the highly anticipated book of a famous author in record time. Although the translators are confined to prevent any kind of leak because of the high financial stakes, a crisis erupts when someone posts the first 10 pages of the novel online and blackmails the publisher to pay 5 million euros. A hunt for the culprit inside the bunker unfolds.",
      "release_date": "2019-12-20"
    },
    {
      "popularity": 11.873,
      "vote_count": 100,
      "video": false,
      "poster_path": "/nKVrJm1dOwALdr2KHxNFhkbTSZc.jpg",
      "id": 517148,
      "adult": false,
      "backdrop_path": "/z7sJyglFom0yccAcIN4JWXBzzhv.jpg",
      "original_language": "ru",
      "original_title": "Дылда",
      "genre_ids": [
        18
      ],
      "title": "Beanpole",
      "vote_average": 7.3,
      "overview": "Set in post-WWII Leningrad as two female soldiers return from war and attempt to rebuild their lives in the ravaged city.",
      "release_date": "2019-06-20"
    },
    {
      "popularity": 12.241,
      "vote_count": 223,
      "video": false,
      "poster_path": "/veZszwMZu8d3WMU6TJX9sV5w1Y4.jpg",
      "id": 470878,
      "adult": false,
      "backdrop_path": "/AjtQdUX41skfo8tthtrnJZI9bXV.jpg",
      "original_language": "en",
      "original_title": "I Can Only Imagine",
      "genre_ids": [
        18,
        10402
      ],
      "title": "I Can Only Imagine",
      "vote_average": 7.4,
      "overview": "Growing up in Texas, Bart Millard suffers physical and emotional abuse at the hands of his father. His childhood and relationship with his dad inspires him to write the hit song \"I Can Only Imagine\" as singer of the Christian band MercyMe.",
      "release_date": "2018-02-14"
    },
    {
      "popularity": 10.347,
      "vote_count": 0,
      "video": false,
      "poster_path": "/nB0qo0U3kAgo3ubUu5zSFXheTFl.jpg",
      "id": 594314,
      "adult": false,
      "backdrop_path": "/fDcW2tQZhjx56uoTEi0pGmsTWLj.jpg",
      "original_language": "en",
      "original_title": "Blood Myth",
      "genre_ids": [
        27
      ],
      "title": "Blood Myth",
      "vote_average": 0,
      "overview": "A journalist desperately tries to find his missing fiancee and finally uncover the truth behind a sinister folklore, leading him down a dangerous road of discovery.",
      "release_date": "2020-06-04"
    },
    {
      "popularity": 14.809,
      "vote_count": 504,
      "video": false,
      "poster_path": "/xFLJDW3na8AADFzQJT6bM1VU5zs.jpg",
      "id": 426613,
      "adult": false,
      "backdrop_path": "/lqmNJ2dEqC5afCmYeLUiC6bYDUI.jpg",
      "original_language": "en",
      "original_title": "The Miseducation of Cameron Post",
      "genre_ids": [
        18
      ],
      "title": "The Miseducation of Cameron Post",
      "vote_average": 6.9,
      "overview": "Pennsylvania, 1993. After getting caught with another girl, teenager Cameron Post is sent to a conversion therapy center run by the strict Dr. Lydia Marsh and her brother, Reverend Rick, whose treatment consists in repenting for feeling “same sex attraction.” Cameron befriends fellow sinners Jane and Adam, thus creating a new family to deal with the surrounding intolerance…",
      "release_date": "2018-07-18"
    },
    {
      "popularity": 10.385,
      "vote_count": 0,
      "video": false,
      "poster_path": "/zQFjMmE3K9AX5QrBL1SXIxYQ9jz.jpg",
      "id": 579583,
      "adult": false,
      "backdrop_path": "/5rwcd24GGltKiqdPT4G2dmchLr9.jpg",
      "original_language": "en",
      "original_title": "The King of Staten Island",
      "genre_ids": [
        35,
        18
      ],
      "title": "The King of Staten Island",
      "vote_average": 0,
      "overview": "Scott has been a case of arrested development ever since his firefighter father died when he was seven. He’s now reached his mid-20s having achieved little, chasing a dream of becoming a tattoo artist that seems far out of reach. As his ambitious younger sister heads off to college, Scott is still living with his exhausted ER nurse mother and spends his days smoking weed, hanging with the guys—Oscar, Igor and Richie—and secretly hooking up with his childhood friend Kelsey. But when his mother starts dating a loudmouth firefighter named Ray, it sets off a chain of events that will force Scott to grapple with his grief and take his first tentative steps toward moving forward in life.",
      "release_date": "2020-06-18"
    },
    {
      "popularity": 9.529,
      "vote_count": 0,
      "video": false,
      "poster_path": "/cMWpArep0yrVtt9i2tLymn8kxTJ.jpg",
      "id": 695564,
      "adult": false,
      "backdrop_path": "/fcxMUWCnbi6saNoWWOFODWUIaMz.jpg",
      "original_language": "en",
      "original_title": "The Jonestown Haunting",
      "genre_ids": [
        80,
        27
      ],
      "title": "The Jonestown Haunting",
      "vote_average": 0,
      "overview": "A survivor of the Jonestown massacre returns to the site 10 years later and discovers the cult's former home has become a breeding ground for the supernatural.",
      "release_date": "2020-06-16"
    },
    {
      "popularity": 13.418,
      "vote_count": 398,
      "video": false,
      "poster_path": "/sO2FECZGmmeisdYWzoQzGRjSZag.jpg",
      "id": 11257,
      "adult": false,
      "backdrop_path": "/8fAXEcTr8AlHsZl6kXKMBXKeqs0.jpg",
      "original_language": "en",
      "original_title": "A Room with a View",
      "genre_ids": [
        18,
        10749
      ],
      "title": "A Room with a View",
      "vote_average": 7,
      "overview": "When Lucy Honeychurch and chaperon Charlotte Bartlett find themselves in Florence with rooms without views, fellow guests Mr Emerson and son George step in to remedy the situation. Meeting the Emersons could change Lucy's life forever but, once back in England, how will her experiences in Tuscany affect her marriage plans?",
      "release_date": "1985-12-13"
    },
    {
      "popularity": 9.235,
      "vote_count": 18,
      "video": false,
      "poster_path": "/gKwXP1VvKNxrc1400yksKA4D9Qc.jpg",
      "id": 617784,
      "adult": false,
      "backdrop_path": "/pPtBB9fD70Ta44pSQXGvZ6Kwc0p.jpg",
      "original_language": "en",
      "original_title": "Military Wives",
      "genre_ids": [
        18
      ],
      "title": "Military Wives",
      "vote_average": 7,
      "overview": "Inspired by global phenomenon of military wives choirs, the story celebrates a band of misfit women who form a choir on a military base. As unexpected bonds of friendship flourish, music and laughter transform their lives, helping each other to overcome their fears for loved ones in combat.",
      "release_date": "2020-03-06"
    }
  ],
  "page": 1,
  "total_results": 98,
  "dates": {
    "maximum": "2020-06-23",
    "minimum": "2020-06-04"
  },
  "total_pages": 5
}
